{
    "checksum": "36bd24eccde072de25f141b68faa566d",
    "filename": "JuniperTest.pdf",
    "filesize": 48214,
    "id": "26b831bd-c217-4a70-89a2-ccc7c06a5eb1",
    "links": {
        "download": "https://sandbox.zenodo.org/api/files/f8e697f3-d296-4a6e-bd4a-385fc2302763/JuniperTest.pdf",
        "self": "https://sandbox.zenodo.org/api/deposit/depositions/276593/files/26b831bd-c217-4a70-89a2-ccc7c06a5eb1"
    }
}